^C:\USERS\SHIZZO\DROPBOX\+TECHNIKUM_WIEN\SEMESTER_2\PHS\PHYSIK_ENGINE\PHYSIK_ENGINE\RELEASE\COLLISIONAABB.OBJ|C:\USERS\SHIZZO\DROPBOX\+TECHNIKUM_WIEN\SEMESTER_2\PHS\PHYSIK_ENGINE\PHYSIK_ENGINE\RELEASE\COLLISIONBOUNDVOL.OBJ|C:\USERS\SHIZZO\DROPBOX\+TECHNIKUM_WIEN\SEMESTER_2\PHS\PHYSIK_ENGINE\PHYSIK_ENGINE\RELEASE\COLLISIONDETECTOR.OBJ|C:\USERS\SHIZZO\DROPBOX\+TECHNIKUM_WIEN\SEMESTER_2\PHS\PHYSIK_ENGINE\PHYSIK_ENGINE\RELEASE\COLLISIONMINKOW.OBJ|C:\USERS\SHIZZO\DROPBOX\+TECHNIKUM_WIEN\SEMESTER_2\PHS\PHYSIK_ENGINE\PHYSIK_ENGINE\RELEASE\COLLISIONOOBB.OBJ|C:\USERS\SHIZZO\DROPBOX\+TECHNIKUM_WIEN\SEMESTER_2\PHS\PHYSIK_ENGINE\PHYSIK_ENGINE\RELEASE\MAIN.OBJ|C:\USERS\SHIZZO\DROPBOX\+TECHNIKUM_WIEN\SEMESTER_2\PHS\PHYSIK_ENGINE\PHYSIK_ENGINE\RELEASE\PARTICLE.OBJ|C:\USERS\SHIZZO\DROPBOX\+TECHNIKUM_WIEN\SEMESTER_2\PHS\PHYSIK_ENGINE\PHYSIK_ENGINE\RELEASE\PARTICLEENGINE.OBJ|C:\USERS\SHIZZO\DROPBOX\+TECHNIKUM_WIEN\SEMESTER_2\PHS\PHYSIK_ENGINE\PHYSIK_ENGINE\RELEASE\PARTICLEFRICTION.OBJ|C:\USERS\SHIZZO\DROPBOX\+TECHNIKUM_WIEN\SEMESTER_2\PHS\PHYSIK_ENGINE\PHYSIK_ENGINE\RELEASE\PARTICLEGRAVITY.OBJ|C:\USERS\SHIZZO\DROPBOX\+TECHNIKUM_WIEN\SEMESTER_2\PHS\PHYSIK_ENGINE\PHYSIK_ENGINE\RELEASE\PARTICLESPRING.OBJ|C:\USERS\SHIZZO\DROPBOX\+TECHNIKUM_WIEN\SEMESTER_2\PHS\PHYSIK_ENGINE\PHYSIK_ENGINE\RELEASE\PARTICLESYSTEM.OBJ|C:\USERS\SHIZZO\DROPBOX\+TECHNIKUM_WIEN\SEMESTER_2\PHS\PHYSIK_ENGINE\PHYSIK_ENGINE\RELEASE\PHYSICENGINE.OBJ|C:\USERS\SHIZZO\DROPBOX\+TECHNIKUM_WIEN\SEMESTER_2\PHS\PHYSIK_ENGINE\PHYSIK_ENGINE\RELEASE\STDAFX.OBJ
C:\PROGRAM FILES (X86)\WINDOWS KITS\8.0\LIB\WIN8\UM\X86\KERNEL32.LIB
C:\PROGRAM FILES (X86)\WINDOWS KITS\8.0\LIB\WIN8\UM\X86\USER32.LIB
C:\PROGRAM FILES (X86)\WINDOWS KITS\8.0\LIB\WIN8\UM\X86\GDI32.LIB
C:\PROGRAM FILES (X86)\WINDOWS KITS\8.0\LIB\WIN8\UM\X86\WINSPOOL.LIB
C:\PROGRAM FILES (X86)\WINDOWS KITS\8.0\LIB\WIN8\UM\X86\COMDLG32.LIB
C:\PROGRAM FILES (X86)\WINDOWS KITS\8.0\LIB\WIN8\UM\X86\ADVAPI32.LIB
C:\PROGRAM FILES (X86)\WINDOWS KITS\8.0\LIB\WIN8\UM\X86\SHELL32.LIB
C:\PROGRAM FILES (X86)\WINDOWS KITS\8.0\LIB\WIN8\UM\X86\OLE32.LIB
C:\PROGRAM FILES (X86)\WINDOWS KITS\8.0\LIB\WIN8\UM\X86\OLEAUT32.LIB
C:\PROGRAM FILES (X86)\WINDOWS KITS\8.0\LIB\WIN8\UM\X86\UUID.LIB
C:\PROGRAM FILES (X86)\WINDOWS KITS\8.0\LIB\WIN8\UM\X86\ODBC32.LIB
C:\PROGRAM FILES (X86)\WINDOWS KITS\8.0\LIB\WIN8\UM\X86\ODBCCP32.LIB
C:\USERS\SHIZZO\DROPBOX\+TECHNIKUM_WIEN\SEMESTER_2\PHS\PHYSIK_ENGINE\PHYSIK_ENGINE\RELEASE\COLLISIONAABB.OBJ
C:\USERS\SHIZZO\DROPBOX\+TECHNIKUM_WIEN\SEMESTER_2\PHS\PHYSIK_ENGINE\PHYSIK_ENGINE\RELEASE\COLLISIONBOUNDVOL.OBJ
C:\USERS\SHIZZO\DROPBOX\+TECHNIKUM_WIEN\SEMESTER_2\PHS\PHYSIK_ENGINE\PHYSIK_ENGINE\RELEASE\COLLISIONDETECTOR.OBJ
C:\USERS\SHIZZO\DROPBOX\+TECHNIKUM_WIEN\SEMESTER_2\PHS\PHYSIK_ENGINE\PHYSIK_ENGINE\RELEASE\COLLISIONMINKOW.OBJ
C:\USERS\SHIZZO\DROPBOX\+TECHNIKUM_WIEN\SEMESTER_2\PHS\PHYSIK_ENGINE\PHYSIK_ENGINE\RELEASE\COLLISIONOOBB.OBJ
C:\USERS\SHIZZO\DROPBOX\+TECHNIKUM_WIEN\SEMESTER_2\PHS\PHYSIK_ENGINE\PHYSIK_ENGINE\RELEASE\MAIN.OBJ
C:\USERS\SHIZZO\DROPBOX\+TECHNIKUM_WIEN\SEMESTER_2\PHS\PHYSIK_ENGINE\PHYSIK_ENGINE\RELEASE\PARTICLE.OBJ
C:\USERS\SHIZZO\DROPBOX\+TECHNIKUM_WIEN\SEMESTER_2\PHS\PHYSIK_ENGINE\PHYSIK_ENGINE\RELEASE\PARTICLEENGINE.OBJ
C:\USERS\SHIZZO\DROPBOX\+TECHNIKUM_WIEN\SEMESTER_2\PHS\PHYSIK_ENGINE\PHYSIK_ENGINE\RELEASE\PARTICLEFRICTION.OBJ
C:\USERS\SHIZZO\DROPBOX\+TECHNIKUM_WIEN\SEMESTER_2\PHS\PHYSIK_ENGINE\PHYSIK_ENGINE\RELEASE\PARTICLEGRAVITY.OBJ
C:\USERS\SHIZZO\DROPBOX\+TECHNIKUM_WIEN\SEMESTER_2\PHS\PHYSIK_ENGINE\PHYSIK_ENGINE\RELEASE\PARTICLESPRING.OBJ
C:\USERS\SHIZZO\DROPBOX\+TECHNIKUM_WIEN\SEMESTER_2\PHS\PHYSIK_ENGINE\PHYSIK_ENGINE\RELEASE\PARTICLESYSTEM.OBJ
C:\USERS\SHIZZO\DROPBOX\+TECHNIKUM_WIEN\SEMESTER_2\PHS\PHYSIK_ENGINE\PHYSIK_ENGINE\RELEASE\PHYSICENGINE.OBJ
C:\USERS\SHIZZO\DROPBOX\+TECHNIKUM_WIEN\SEMESTER_2\PHS\PHYSIK_ENGINE\PHYSIK_ENGINE\RELEASE\STDAFX.OBJ
C:\WINDOWS\GLOBALIZATION\SORTING\SORTDEFAULT.NLS
C:\PROGRAM FILES (X86)\MICROSOFT VISUAL STUDIO 11.0\VC\BIN\C2.DLL
C:\PROGRAM FILES (X86)\MICROSOFT VISUAL STUDIO 11.0\VC\LIB\LIBCPMT.LIB
C:\DEV\CLANLIB3.0\LIB\WIN32\CLANCORE-STATIC-MT.LIB
C:\DEV\CLANLIB3.0\LIB\WIN32\CLANAPP-STATIC-MT.LIB
C:\DEV\CLANLIB3.0\LIB\WIN32\CLANDISPLAY-STATIC-MT.LIB
C:\PROGRAM FILES (X86)\WINDOWS KITS\8.0\LIB\WIN8\UM\X86\WINMM.LIB
C:\PROGRAM FILES (X86)\MICROSOFT VISUAL STUDIO 11.0\VC\LIB\LIBCMT.LIB
C:\PROGRAM FILES (X86)\MICROSOFT VISUAL STUDIO 11.0\VC\LIB\OLDNAMES.LIB
C:\DEV\CLANLIB3.0\LIB\WIN32\CLANGL-STATIC-MT.LIB
C:\PROGRAM FILES (X86)\WINDOWS KITS\8.0\LIB\WIN8\UM\X86\OPENGL32.LIB
C:\PROGRAM FILES (X86)\WINDOWS KITS\8.0\LIB\WIN8\UM\X86\GLU32.LIB
C:\PROGRAM FILES (X86)\WINDOWS KITS\8.0\LIB\WIN8\UM\X86\DBGHELP.LIB
C:\PROGRAM FILES (X86)\WINDOWS KITS\8.0\LIB\WIN8\UM\X86\COMCTL32.LIB
C:\PROGRAM FILES (X86)\MICROSOFT VISUAL STUDIO 11.0\VC\BIN\1033\LINKUI.DLL
C:\PROGRAM FILES (X86)\WINDOWS KITS\8.0\BIN\X86\RC.EXE
C:\PROGRAM FILES (X86)\MICROSOFT VISUAL STUDIO 11.0\VC\BIN\CVTRES.EXE
C:\WINDOWS\SYSTEM32\TZRES.DLL
C:\WINDOWS\SYSTEM32\RSAENH.DLL
